Division,WeightClassKg,Place,Name,Team,BodyweightKg,Best3SquatKg,Best3BenchKg,Best3DeadliftKg,TotalKg,Equipment,Event,Sex,BirthDate
Girls,44.23,1,Eneece Avila,La Feria,44.09,113.4,79.38,113.4,306.17,Unlimited,SBD,F,
Girls,44.23,2,Journee Mekdara,Dumas,42.23,113.4,56.7,129.27,299.37,Unlimited,SBD,F,
Girls,44.23,3,Merin Cortez,Port Lavaca Calhoun,43.77,115.67,49.9,115.67,281.23,Unlimited,SBD,F,
Girls,44.23,4,Aida Torres,Paris,43.27,106.59,54.43,115.67,276.69,Unlimited,SBD,F,
Girls,44.23,5,Anistaschya Dix,Corpus Christi Calallen,44.18,102.06,63.5,102.06,267.62,Unlimited,SBD,F,
Girls,44.23,6,Sumer Garcia,Rockport-Fulton,42.96,106.59,52.16,106.59,265.35,Unlimited,SBD,F,
Girls,44.23,7,Felicity Dominguez,Beeville Jones,41.1,113.4,47.63,102.06,263.08,Unlimited,SBD,F,
Girls,44.23,8,Angelica Estrada,San Angelo Lake View,43.32,99.79,65.77,95.25,260.82,Unlimited,SBD,F,
Girls,44.23,9,Rihanna Garza,La Feria,42.68,111.13,45.36,92.99,249.48,Unlimited,SBD,F,
Girls,44.23,10,Myleigh Bradshaw,Tyler Chapel Hill,42.46,86.18,54.43,90.72,231.33,Unlimited,SBD,F,
Girls,44.23,11,Gracelynn Smith,Orange Little Cypress-Mauriceville,42.82,79.38,43.09,90.72,213.19,Unlimited,SBD,F,
Girls,44.23,12,Hailey Palmer,Lampasas,43.95,72.57,40.82,90.72,204.12,Unlimited,SBD,F,
Girls,44.23,13,Destiny Martinez,El Campo,44.09,61.23,36.29,79.38,176.9,Unlimited,SBD,F,
Girls,44.23,14,Alison Gonzalez,Lampasas,44.13,58.97,34.02,72.57,165.56,Unlimited,SBD,F,
Girls,44.23,DQ,Madison Aguero,La Feria,44.23,122.47,,,,Unlimited,SBD,F,
Girls,44.23,DQ,Zheztynie Rodriguez,Decatur,41.73,92.99,47.63,,,Unlimited,SBD,F,
Girls,44.23,DQ,Lilly Clark,Nevada Community,42.32,97.52,,,,Unlimited,SBD,F,
Girls,47.85,1,Hannah Hernandez,Dumas,46.99,151.95,86.18,138.35,376.48,Unlimited,SBD,F,
Girls,47.85,2,Corina Leal,Hidalgo Early College,46.18,138.35,88.45,131.54,358.34,Unlimited,SBD,F,
Girls,47.85,3,Zoey Adams,Springtown,47.81,124.74,65.77,129.27,319.78,Unlimited,SBD,F,
Girls,47.85,4,Barbi Ruiz,Kaufman,47.85,115.67,72.57,111.13,299.37,Unlimited,SBD,F,
Girls,47.85,5,Shamiya Holt,Paris,46.67,106.59,54.43,111.13,272.16,Unlimited,SBD,F,
Girls,47.85,6,Lheztynie Rodriguez,Decatur,46.77,99.79,52.16,111.13,263.08,Unlimited,SBD,F,
Girls,47.85,7,Layla Robinson,Vidor,46.63,99.79,54.43,106.59,260.82,Unlimited,SBD,F,
Girls,47.85,8,Marley Winchester,Canyon Randall,46.72,111.13,47.63,97.52,256.28,Unlimited,SBD,F,
Girls,47.85,9,Raiden Parham,Stephenville,46.81,90.72,52.16,99.79,242.67,Unlimited,SBD,F,
Girls,47.85,10,Halle Maxwell,Burnet,46.36,90.72,49.9,95.25,235.87,Unlimited,SBD,F,
Girls,47.85,11,Yozzelin Sarabia,Waco La Vega,45,83.91,43.09,102.06,229.06,Unlimited,SBD,F,
Girls,47.85,12,Kalea Ahsing,Lumberton,46.81,90.72,36.29,90.72,217.72,Unlimited,SBD,F,
Girls,47.85,DQ,Emily Avila,La Feria,45.99,,,,,Unlimited,SBD,F,
Girls,51.94,1,Haylee Shultz,Sulphur Springs,51.85,136.08,88.45,151.95,376.48,Unlimited,SBD,F,
Girls,51.94,2,Bianca Carrizales,Beeville Jones,51.21,142.88,90.72,129.27,362.87,Unlimited,SBD,F,
Girls,51.94,3,Emily Olivares,Beeville Jones,50.85,136.08,90.72,133.81,360.61,Unlimited,SBD,F,
Girls,51.94,4,Rylie Dlouhy,Taylor,50.21,131.54,81.65,140.61,353.8,Unlimited,SBD,F,
Girls,51.94,5,Gabriella Garza #3,Corpus Christi Calallen,50.44,142.88,77.11,124.74,344.73,Unlimited,SBD,F,
Girls,51.94,6,Grace Knight,Decatur,50.12,138.35,72.57,122.47,333.39,Unlimited,SBD,F,
Girls,51.94,7,Anna Blassingame,Paris,51.85,124.74,83.91,117.93,326.59,Unlimited,SBD,F,
Girls,51.94,8,Callee Gaston,Springtown,50.3,131.54,72.57,115.67,319.78,Unlimited,SBD,F,
Girls,51.94,9,Sam Gam,Decatur,50.08,131.54,68.04,113.4,312.98,Unlimited,SBD,F,
Girls,51.94,10,Izzy Parker,Springtown,48.94,124.74,61.23,120.2,306.17,Unlimited,SBD,F,
Girls,51.94,11,Jaelynn Lopez,Dumas,50.26,120.2,56.7,122.47,299.37,Unlimited,SBD,F,
Girls,51.94,12,Mia Gonzalez,China Spring,51.39,117.93,54.43,127.01,299.37,Unlimited,SBD,F,
Girls,51.94,13,Alexis Rodriguez #9,Freeport Brazosport,51.94,115.67,58.97,115.67,290.3,Unlimited,SBD,F,
Girls,51.94,14,Monse Holguin,Big Spring,51.48,99.79,49.9,117.93,267.62,Unlimited,SBD,F,
Girls,51.94,DQ,Aubrey Martinez,Freeport Brazosport,51.89,145.15,77.11,,,Unlimited,SBD,F,
Girls,56.02,1,Annica Gonzales,Beeville Jones,55.43,183.7,104.33,174.63,462.66,Unlimited,SBD,F,
Girls,56.02,2,Katelyn Padalecki,Floresville,54.34,170.1,92.99,138.35,401.43,Unlimited,SBD,F,
Girls,56.02,3,Cyrianna Serrano,Beeville Jones,54.88,142.88,99.79,149.69,392.36,Unlimited,SBD,F,
Girls,56.02,4,Jalynn Gateley,Lindale,53.8,149.69,104.33,136.08,390.09,Unlimited,SBD,F,
Girls,56.02,5,Yuridia Godoy,Hidalgo Early College,54.16,156.49,97.52,136.08,390.09,Unlimited,SBD,F,
Girls,56.02,6,Skyler Tyree,Springtown,54.61,138.35,74.84,154.22,367.41,Unlimited,SBD,F,
Girls,56.02,7,Lana Skinner,Vidor,55.75,129.27,99.79,133.81,362.87,Unlimited,SBD,F,
Girls,56.02,8,Jessica Montgomery,Springtown,56.02,149.69,81.65,129.27,360.61,Unlimited,SBD,F,
Girls,56.02,9,Audrey Chupe,Rockport-Fulton,55.16,127.01,74.84,151.95,353.8,Unlimited,SBD,F,
Girls,56.02,10,Kaitlyn Garcia,Rockport-Fulton,54.61,154.22,77.11,120.2,351.53,Unlimited,SBD,F,
Girls,56.02,11,Emma Reeves,Decatur,54.75,145.15,70.31,129.27,344.73,Unlimited,SBD,F,
Girls,56.02,12,Baleigh Cashion,Paris,55.79,133.81,74.84,131.54,340.19,Unlimited,SBD,F,
Girls,56.02,13,Abby Smith,Burnet,52.44,133.81,74.84,129.27,337.93,Unlimited,SBD,F,
Girls,56.02,14,Talyiah Hosey,Port Lavaca Calhoun,55.11,136.08,63.5,136.08,335.66,Unlimited,SBD,F,
Girls,56.02,15,Lindsey Cope,Mabank,54.98,127.01,72.57,122.47,322.05,Unlimited,SBD,F,
Girls,56.02,16,Krista Rodriguez,Dumas,53.61,136.08,56.7,124.74,317.51,Unlimited,SBD,F,
Girls,56.02,17,Kinsley Henderson,Alvarado,54.7,117.93,72.57,124.74,315.25,Unlimited,SBD,F,
Girls,56.02,18,Selene Rodriguez,El Campo,55.43,117.93,65.77,120.2,303.91,Unlimited,SBD,F,
Girls,56.02,19,Yvanka Martinez,Big Spring,56.02,108.86,56.7,122.47,288.03,Unlimited,SBD,F,
Girls,60.1,1,Kaylynn Mendez,El Campo,59.83,190.51,108.86,170.1,469.47,Unlimited,SBD,F,
Girls,60.1,2,Camryn Barragan,Vidor,58.51,163.29,129.27,167.83,460.4,Unlimited,SBD,F,
Girls,60.1,3,Addison Frazier,Lindale,58.74,181.44,117.93,158.76,458.13,Unlimited,SBD,F,
Girls,60.1,4,Abigail Stoner,Springtown,59.42,165.56,108.86,147.42,421.84,Unlimited,SBD,F,
Girls,60.1,5,Galilea Gonzalez,La Feria,58.38,165.56,106.59,147.42,419.57,Unlimited,SBD,F,
Girls,60.1,6,Destyni Briseno,Port Lavaca Calhoun,59.6,174.63,90.72,149.69,415.04,Unlimited,SBD,F,
Girls,60.1,7,Adi Farni,Dumas,56.88,172.37,88.45,140.61,401.43,Unlimited,SBD,F,
Girls,60.1,8,Kelly San Miguel,Beeville Jones,58.92,154.22,81.65,158.76,394.63,Unlimited,SBD,F,
Girls,60.1,9,Callie Riley,Mabank,57.38,154.22,90.72,124.74,369.68,Unlimited,SBD,F,
Girls,60.1,10,Mayah Escamilla,Decatur,59.69,151.95,79.38,131.54,362.87,Unlimited,SBD,F,
Girls,60.1,11,Jennifer Herrera,Corpus Christi Tuloso-Midway,59.19,131.54,72.57,147.42,351.53,Unlimited,SBD,F,
Girls,60.1,12,Dakota Burgess,Alvarado,56.97,127.01,68.04,117.93,312.98,Unlimited,SBD,F,
Girls,60.1,13,Hayvene Mares,Dumas,58.01,127.01,61.23,124.74,312.98,Unlimited,SBD,F,
Girls,60.1,DQ,Eliana Aleman,Taylor,58.42,,,,,Unlimited,SBD,F,
Girls,67.36,1,Norris Nolyn,Henderson,65.77,190.51,97.52,156.49,444.52,Unlimited,SBD,F,
Girls,67.36,2,Eldonnette Chancellor,Beeville Jones,66.18,170.1,102.06,142.88,415.04,Unlimited,SBD,F,
Girls,67.36,3,Hayley Knight,Springtown,66.45,172.37,86.18,156.49,415.04,Unlimited,SBD,F,
Girls,67.36,4,Mackenzie Martin,Paris,66.81,149.69,92.99,156.49,399.16,Unlimited,SBD,F,
Girls,67.36,5,Melissa Chavez,Springtown,64.55,163.29,95.25,138.35,396.89,Unlimited,SBD,F,
Girls,67.36,6,Ariel Casarez,San Antonio Kennedy,66.54,163.29,81.65,145.15,390.09,Unlimited,SBD,F,
Girls,67.36,7,Brisa Adame,Dumas,63.19,163.29,74.84,147.42,385.55,Unlimited,SBD,F,
Girls,67.36,8,Stehle Snyder,Rockport-Fulton,63.64,142.88,83.91,149.69,376.48,Unlimited,SBD,F,
Girls,67.36,9,Averie Ortega,La Feria,63.87,145.15,83.91,147.42,376.48,Unlimited,SBD,F,
Girls,67.36,10,Zoey Ibarra,Uvalde,65.45,151.95,79.38,145.15,376.48,Unlimited,SBD,F,
Girls,67.36,11,RiQueleigh Grant,Taylor,64.95,140.61,95.25,138.35,374.21,Unlimited,SBD,F,
Girls,67.36,12,Kyara Fite,Waco La Vega,66.27,136.08,79.38,151.95,367.41,Unlimited,SBD,F,
Girls,67.36,13,Claire Jetton,Needville,64.5,149.69,83.91,131.54,365.14,Unlimited,SBD,F,
Girls,67.36,14,Elena Urquidez,Andrews,64.64,127.01,63.5,138.35,328.85,Unlimited,SBD,F,
Girls,67.36,DQ,Faith Gonzalez,La Feria,63.32,183.7,,,,Unlimited,SBD,F,
Girls,67.36,DQ,Ally Sohrt,El Campo,66.32,142.88,,,,Unlimited,SBD,F,
Girls,75.07,1,Jennifer Rodriguez,Beeville Jones,72.48,183.7,124.74,174.63,483.08,Unlimited,SBD,F,
Girls,75.07,2,Celeste Godinez,Corpus Christi Tuloso-Midway,70.08,188.24,138.35,154.22,480.81,Unlimited,SBD,F,
Girls,75.07,3,Hser Ther,Port Lavaca Calhoun,68.31,190.51,111.13,165.56,467.2,Unlimited,SBD,F,
Girls,75.07,4,Grace Lewis,Springtown,74.62,172.37,92.99,158.76,424.11,Unlimited,SBD,F,
Girls,75.07,5,Sophia Galysh,Lindale,73.84,158.76,97.52,136.08,392.36,Unlimited,SBD,F,
Girls,75.07,6,Bethany Huggins,El Campo,72.08,165.56,83.91,140.61,390.09,Unlimited,SBD,F,
Girls,75.07,7,Synnika Rose,Paris,72.94,154.22,72.57,154.22,381.02,Unlimited,SBD,F,
Girls,75.07,8,Idalie Lopez,Dumas,73.62,181.44,68.04,127.01,376.48,Unlimited,SBD,F,
Girls,75.07,9,Kiana Perkins,Kaufman,67.49,142.88,86.18,145.15,374.21,Unlimited,SBD,F,
Girls,75.07,10,Addison Berry,Lampasas,74.25,136.08,77.11,145.15,358.34,Unlimited,SBD,F,
Girls,75.07,11,Destiny Ramirez,Springtown,74.62,142.88,79.38,133.81,356.07,Unlimited,SBD,F,
Girls,75.07,12,Aribel Zarate,El Campo,70.31,149.69,79.38,115.67,344.73,Unlimited,SBD,F,
Girls,75.07,13,Libby Weatherford,Dumas,72.12,129.27,79.38,136.08,344.73,Unlimited,SBD,F,
Girls,75.07,DQ,Kyndal Anderson,Mabank,70.08,145.15,,,,Unlimited,SBD,F,
Girls,75.07,DQ,Elizabeth Dobbins,Fredericksburg,70.13,147.42,72.57,129.27,,Unlimited,SBD,F,
Girls,82.33,1,Marilyn Olivarez,Uvalde,80.1,185.97,120.2,172.37,478.54,Unlimited,SBD,F,
Girls,82.33,2,Kyene Harris,Decatur,81.33,188.24,111.13,165.56,464.93,Unlimited,SBD,F,
Girls,82.33,3,Madison Watson,Vidor,81.47,174.63,111.13,172.37,458.13,Unlimited,SBD,F,
Girls,82.33,4,Hailey Yerdon,Somerset,81.6,170.1,138.35,133.81,442.25,Unlimited,SBD,F,
Girls,82.33,5,Aryana Perez,Waco La Vega,76.88,181.44,99.79,142.88,424.11,Unlimited,SBD,F,
Girls,82.33,6,Madison Allen,Livingston,80.33,170.1,88.45,161.03,419.57,Unlimited,SBD,F,
Girls,82.33,7,Stephanie McGrew,Paris,79.7,170.1,81.65,165.56,417.3,Unlimited,SBD,F,
Girls,82.33,8,Mia Garcia,Beeville Jones,79.2,149.69,104.33,158.76,412.77,Unlimited,SBD,F,
Girls,82.33,9,Lyndsey Shotwell,Springtown,77.38,163.29,95.25,145.15,403.7,Unlimited,SBD,F,
Girls,82.33,10,Arianna Bermudez,Lampasas,80.97,176.9,79.38,145.15,401.43,Unlimited,SBD,F,
Girls,82.33,11,Regan Wooten,Lindale,80.33,145.15,106.59,147.42,399.16,Unlimited,SBD,F,
Girls,82.33,12,Allison Noble,Comal Davenport,79.83,156.49,102.06,133.81,392.36,Unlimited,SBD,F,
Girls,82.33,13,Angelina Paez,San Angelo Lake View,79.74,147.42,86.18,124.74,358.34,Unlimited,SBD,F,
Girls,82.33,14,Alandra Juarez,Big Spring,77.43,108.86,70.31,138.35,317.51,Unlimited,SBD,F,
Girls,90.04,1,Jaycee Barnes,Port Lavaca Calhoun,86.86,204.12,120.2,176.9,501.22,Unlimited,SBD,F,
Girls,90.04,2,Addison Estrada,Beeville Jones,88.5,204.12,138.35,149.69,492.15,Unlimited,SBD,F,
Girls,90.04,3,Ashianya Elam,Springtown,83.51,190.51,108.86,154.22,453.59,Unlimited,SBD,F,
Girls,90.04,4,Kelsey Cooper,Zapata,88.68,188.24,81.65,156.49,426.38,Unlimited,SBD,F,
Girls,90.04,5,Yazmin Heredia,Andrews,85.82,170.1,97.52,151.95,419.57,Unlimited,SBD,F,
Girls,90.04,6,Kidd Anna,Athens,87.77,188.24,83.91,140.61,412.77,Unlimited,SBD,F,
Girls,90.04,7,Lizet Jimenez,Freeport Brazosport,87.45,158.76,74.84,165.56,399.16,Unlimited,SBD,F,
Girls,90.04,8,Janelle Galvan,Mineral Wells,88.72,170.1,83.91,136.08,390.09,Unlimited,SBD,F,
Girls,90.04,9,Kate Walraven,Alvarado,85,142.88,83.91,129.27,356.07,Unlimited,SBD,F,
Girls,90.04,10,Maddi Moise,Burnet,87.95,117.93,83.91,142.88,344.73,Unlimited,SBD,F,
Girls,90.04,11,Cheyenne Touchet,Lumberton,84.1,113.4,79.38,120.2,312.98,Unlimited,SBD,F,
Girls,90.04,DQ,Alexis Wilson,Mabank,87.09,158.76,,,,Unlimited,SBD,F,
Girls,90.04,DQ,Kailey Looney,Mabank,88.18,,,,,Unlimited,SBD,F,
Girls,90.04,DQ,Jazmin Vedia,Fort Worth Diamond Hill-Jarvis,83.78,167.83,113.4,,,Unlimited,SBD,F,
Girls,90.04,DQ,Izabella Montoya,Andrews,88.45,,,,,Unlimited,SBD,F,
Girls,100.02,1,Angelica Routh,Decatur,97.66,204.12,127.01,163.29,494.42,Unlimited,SBD,F,
Girls,100.02,2,Zailey Cano,Port Lavaca Calhoun,98.38,204.12,120.2,165.56,489.88,Unlimited,SBD,F,
Girls,100.02,3,Abigail Martinez,Beeville Jones,93.85,188.24,129.27,170.1,487.61,Unlimited,SBD,F,
Girls,100.02,4,Lilliana Flores,Beeville Jones,97.39,204.12,120.2,149.69,474,Unlimited,SBD,F,
Girls,100.02,5,Rebecca Rodriguez,Big Spring,99.29,181.44,90.72,172.37,444.52,Unlimited,SBD,F,
Girls,100.02,6,Cassie Wilson,Celina,96.43,181.44,99.79,136.08,417.3,Unlimited,SBD,F,
Girls,100.02,7,Tynijah Sanders,Waco La Vega,93.44,151.95,117.93,136.08,405.97,Unlimited,SBD,F,
Girls,100.02,8,Hayley Vecchio,Dumas,93.85,170.1,95.25,138.35,403.7,Unlimited,SBD,F,
Girls,100.02,9,Addison DeGreek,Springtown,93.53,158.76,111.13,127.01,396.89,Unlimited,SBD,F,
Girls,100.02,10,Hannah Milliman,Decatur,98.16,158.76,102.06,133.81,394.63,Unlimited,SBD,F,
Girls,100.02,11,Angelina Anderson,Splendora,96.84,167.83,77.11,142.88,387.82,Unlimited,SBD,F,
Girls,100.02,12,Scarlett Martin,El Campo,92.71,138.35,83.91,142.88,365.14,Unlimited,SBD,F,
Girls,100.02,13,Sarah Cobarrubias,Waxahachie Life,97.66,142.88,88.45,131.54,362.87,Unlimited,SBD,F,
Girls,100.02,14,Montserrat Fregoso,Marble Falls,96.57,136.08,63.5,124.74,324.32,Unlimited,SBD,F,
Girls,100.02,DQ,Emmerson Mokuiki,Corpus Christi Tuloso-Midway,97.48,195.04,113.4,,,Unlimited,SBD,F,
Girls,100.02,DQ,Aelena Kellum,Henderson,96.48,,,,,Unlimited,SBD,F,
Girls,110,1,Arisbe Gonzalez,Hidalgo Early College,106.68,204.12,163.29,156.49,523.9,Unlimited,SBD,F,
Girls,110,2,Krista Randig,Taylor,101.65,176.9,111.13,165.56,453.59,Unlimited,SBD,F,
Girls,110,3,Amariya Watson,Waco La Vega,105.28,183.7,111.13,158.76,453.59,Unlimited,SBD,F,
Girls,110,4,Gabriela Mata,Hidalgo Early College,104.51,206.38,95.25,147.42,449.06,Unlimited,SBD,F,
Girls,110,5,Tymia Browner,Paris,108.64,165.56,113.4,147.42,426.38,Unlimited,SBD,F,
Girls,110,6,Izabella Ramirez,Decatur,107.59,163.29,102.06,149.69,415.04,Unlimited,SBD,F,
Girls,110,7,Lily Bell,Andrews,107.73,170.1,102.06,142.88,415.04,Unlimited,SBD,F,
Girls,110,8,Taylor Harris,Mabank,105.91,176.9,90.72,145.15,412.77,Unlimited,SBD,F,
Girls,110,9,Khylee Whalen,Dumas,108.32,158.76,79.38,145.15,383.29,Unlimited,SBD,F,
Girls,110,10,Isabella Medina,Springtown,100.15,163.29,102.06,115.67,381.02,Unlimited,SBD,F,
Girls,110,11,Kenedee Paul,El Campo,108.59,117.93,68.04,142.88,328.85,Unlimited,SBD,F,
Girls,110,12,Shelbie Anderson #2,Vidor,101.56,113.4,45.36,104.33,263.08,Unlimited,SBD,F,
Girls,110,DQ,Kayla Rosalez,La Feria,101.47,183.7,,,,Unlimited,SBD,F,
Girls,110+,1,Julissa Ramirez,La Feria,141.7,240.4,117.93,156.49,514.83,Unlimited,SBD,F,
Girls,110+,2,Quasett Woodruff,Big Spring,122.47,226.8,106.59,179.17,512.56,Unlimited,SBD,F,
Girls,110+,3,Ebony Mays,Livingston,118.75,208.65,102.06,170.1,480.81,Unlimited,SBD,F,
Girls,110+,4,Violet Calderon,Big Spring,122.24,208.65,102.06,165.56,476.27,Unlimited,SBD,F,
Girls,110+,5,Kayla Salazar,Pleasanton,114.8,201.85,111.13,158.76,471.74,Unlimited,SBD,F,
Girls,110+,6,Carly Smith,Decatur,142.88,206.38,88.45,176.9,471.74,Unlimited,SBD,F,
Girls,110+,7,Machelle Allen,Sulphur Springs,137.03,179.17,133.81,151.95,464.93,Unlimited,SBD,F,
Girls,110+,8,Janiya Jefferson,San Angelo Lake View,140.39,181.44,86.18,185.97,453.59,Unlimited,SBD,F,
Girls,110+,9,Sarai Harris,Paris,135.71,179.17,122.47,133.81,435.45,Unlimited,SBD,F,
Girls,110+,10,Jocelyn Sanchez,Navasota,150.73,195.04,83.91,151.95,430.91,Unlimited,SBD,F,
Girls,110+,11,Kimberly Dominguez,Lake Worth,110.22,136.08,83.91,167.83,387.82,Unlimited,SBD,F,
Girls,110+,12,Klaryssa Cortes,Needville,112.81,165.56,83.91,136.08,385.55,Unlimited,SBD,F,
Girls,110+,DQ,Sophia Plonka,Taylor,132.18,,,,,Unlimited,SBD,F,
