Division,WeightClassKg,Place,Name,Team,BodyweightKg,Best3SquatKg,Best3BenchKg,Best3DeadliftKg,TotalKg,Equipment,Event,Sex,BirthDate
Boys,51.71,1,Fabian Solis,Edinburg Idea College Prep,50.44,226.8,129.27,188.24,544.31,Unlimited,SBD,M,
Boys,51.71,2,Leonardo Sauceda,Edinburg Economedes,50.89,176.9,108.86,161.03,446.79,Unlimited,SBD,M,
Boys,51.71,3,Julian Cabrera,Mercedes,51.62,165.56,99.79,163.29,428.64,Unlimited,SBD,M,
Boys,51.71,4,Carlos Cantu,McAllen Memorial,50.08,163.29,88.45,174.63,426.38,Unlimited,SBD,M,
Boys,51.71,5,Lionel Sanchez,Rio Hondo,51.71,161.03,92.99,154.22,408.23,Unlimited,SBD,M,
Boys,51.71,6,Daniel Limon,La Joya Juarez-Lincoln,51.71,154.22,79.38,158.76,392.36,Unlimited,SBD,M,
Boys,51.71,7,Alvaro Valdez,Hidalgo Early College,51.71,151.95,92.99,142.88,387.82,Unlimited,SBD,M,
Boys,51.71,8,Albert Camacho,Zapata,51.71,142.88,92.99,149.69,385.55,Unlimited,SBD,M,
Boys,51.71,9,Adrian Valadez,Edinburg North,51.71,147.42,97.52,133.81,378.75,Unlimited,SBD,M,
Boys,51.71,10,Christopher Martinez,Mission,51.71,145.15,83.91,147.42,376.48,Unlimited,SBD,M,
Boys,51.71,11,Josh Velasquez,Donna,51.71,129.27,83.91,133.81,347,Unlimited,SBD,M,
Boys,51.71,12,Marcus Ortiz,Edinburg Vela,51.71,117.93,97.52,131.54,347,Unlimited,SBD,M,
Boys,51.71,DQ,Caleb Moreno,La Joya,51.71,,,,,Unlimited,SBD,M,
Boys,51.71,DQ,Manuel Soto,La Feria,51.71,,,,,Unlimited,SBD,M,
Boys,51.71,DQ,Dereck Liga,Edinburg Economedes,51.71,,,,,Unlimited,SBD,M,
Boys,51.71,DQ,Ismael Cavazos,La Villa,51.71,,,,,Unlimited,SBD,M,
Boys,51.71,DQ,Jesus Martinez,Zapata,51.71,,,,,Unlimited,SBD,M,
Boys,55.79,1,Gerardo Sanchez,Mercedes,54.16,188.24,97.52,224.53,510.29,Unlimited,SBD,M,
Boys,55.79,2,Joey Rincones,Edinburg Idea College Prep,55.79,197.31,111.13,185.97,494.42,Unlimited,SBD,M,
Boys,55.79,3,Juventino Zapata,Zapata,55.79,188.24,102.06,201.85,492.15,Unlimited,SBD,M,
Boys,55.79,4,Leonardo Ruiz,Hidalgo Early College,55.79,149.69,113.4,190.51,453.59,Unlimited,SBD,M,
Boys,55.79,5,Frankie-Raye Gonzalez,La Villa,55.79,163.29,104.33,174.63,442.25,Unlimited,SBD,M,
Boys,55.79,6,Yahir Hernandez,Edinburg North,52.53,165.56,106.59,165.56,437.72,Unlimited,SBD,M,
Boys,55.79,7,Joe Cruz,Edinburg North,55.16,154.22,95.25,176.9,426.38,Unlimited,SBD,M,
Boys,55.79,8,Norberto Garza,La Joya,55.79,156.49,92.99,163.29,412.77,Unlimited,SBD,M,
Boys,55.79,9,Daniel Perez,Hidalgo Early College,55.79,124.74,102.06,163.29,390.09,Unlimited,SBD,M,
Boys,55.79,10,Gerardo Sandoval,PSJA Memorial,55.79,158.76,90.72,140.61,390.09,Unlimited,SBD,M,
Boys,55.79,11,Damien Perez,Hidalgo Early College,55.79,124.74,102.06,158.76,385.55,Unlimited,SBD,M,
Boys,55.79,12,Marcos Castillo,PSJA North,55.16,145.15,70.31,165.56,381.02,Unlimited,SBD,M,
Boys,55.79,13,Abrahan Cantu,La Feria,55.79,158.76,81.65,117.93,358.34,Unlimited,SBD,M,
Boys,55.79,14,Ivan Ramirez,La Joya Juarez-Lincoln,54.43,138.35,63.5,149.69,351.53,Unlimited,SBD,M,
Boys,55.79,15,Josue Resendez,Rio Grande City Grulla,54.43,113.4,79.38,147.42,340.19,Unlimited,SBD,M,
Boys,55.79,16,Juan Sanchez,Pharr Valley View,54.07,117.93,72.57,145.15,335.66,Unlimited,SBD,M,
Boys,55.79,17,Raul Gonzalez,Santa Maria,52.62,102.06,61.23,113.4,276.69,Unlimited,SBD,M,
Boys,55.79,DQ,Jayden Rodríguez #1,Donna,54.61,176.9,99.79,,,Unlimited,SBD,M,
Boys,55.79,DQ,Ricky Solis,Zapata,55.79,115.67,,,,Unlimited,SBD,M,
Boys,55.79,DQ,Erasmo Rodriguez,La Joya,55.79,154.22,,,,Unlimited,SBD,M,
Boys,55.79,DQ,Markus Mata,La Villa,55.79,,,,,Unlimited,SBD,M,
Boys,59.87,1,Ulises Enriquez,Mercedes,59.87,238.14,124.74,233.6,596.47,Unlimited,SBD,M,
Boys,59.87,2,Brian Maldonado,Mercedes,59.87,210.92,113.4,226.8,551.11,Unlimited,SBD,M,
Boys,59.87,3,Santi Rogel,Donna North,59.87,204.12,97.52,224.53,526.17,Unlimited,SBD,M,
Boys,59.87,4,Ruben Robles,McAllen Memorial,58.6,204.12,117.93,190.51,512.56,Unlimited,SBD,M,
Boys,59.87,5,Dionicio Gutierrez,Mission Veterans Memorial,59.24,188.24,120.2,181.44,489.88,Unlimited,SBD,M,
Boys,59.87,6,Robert Rodriguez #10,Sharyland Pioneer,59.56,188.24,106.59,176.9,471.74,Unlimited,SBD,M,
Boys,59.87,7,Joseph Villarreal,PSJA,59.87,179.17,115.67,176.9,471.74,Unlimited,SBD,M,
Boys,59.87,8,Darrius Capetillo,McAllen Memorial,59.87,183.7,106.59,165.56,455.86,Unlimited,SBD,M,
Boys,59.87,9,Gabriel Picazzo,Santa Maria,59.87,179.17,97.52,170.1,446.79,Unlimited,SBD,M,
Boys,59.87,10,Pedro Perez,Santa Maria,59.87,158.76,86.18,163.29,408.23,Unlimited,SBD,M,
Boys,59.87,11,Aaron Flores,Edinburg Vela,58.6,133.81,108.86,161.03,403.7,Unlimited,SBD,M,
Boys,59.87,12,Brayan Pitero,Zapata,59.87,131.54,72.57,161.03,365.14,Unlimited,SBD,M,
Boys,59.87,13,Rafael Quintero,Mission,59.87,97.52,70.31,151.95,319.78,Unlimited,SBD,M,
Boys,59.87,14,Christopher Laboy,Mission,59.87,92.99,49.9,104.33,247.21,Unlimited,SBD,M,
Boys,59.87,DQ,Melvin Sandoval,La Joya,59.87,,,,,Unlimited,SBD,M,
Boys,59.87,DQ,Ivan Duran,Hidalgo Early College,59.87,,,,,Unlimited,SBD,M,
Boys,59.87,DQ,JaQueal Rodriguez,Weslaco East,59.87,,,,,Unlimited,SBD,M,
Boys,59.87,DQ,Jacob Saenz,Rio Grande City,59.87,,,,,Unlimited,SBD,M,
Boys,67.13,1,Devon Trevino,Mercedes,66.22,272.16,154.22,256.28,682.66,Unlimited,SBD,M,
Boys,67.13,2,Isaiah Castro,Mercedes,67.13,265.35,151.95,222.26,639.57,Unlimited,SBD,M,
Boys,67.13,3,Jonathan Hernandez,Edinburg Economedes,67.13,233.6,124.74,276.69,635.03,Unlimited,SBD,M,
Boys,67.13,4,Aiden Scurlock,McAllen,66.86,256.28,133.81,219.99,610.08,Unlimited,SBD,M,
Boys,67.13,5,Julius Molina,Edinburg North,67.13,249.48,133.81,201.85,585.13,Unlimited,SBD,M,
Boys,67.13,6,Joaquin Castaneda,Edinburg Economedes,65.23,226.8,129.27,226.8,582.87,Unlimited,SBD,M,
Boys,67.13,7,Orlando Torres,Edinburg North,67.13,244.94,136.08,195.04,576.06,Unlimited,SBD,M,
Boys,67.13,8,Emiliano Fraga,PSJA,67.13,226.8,131.54,210.92,569.26,Unlimited,SBD,M,
Boys,67.13,10,Joseph Salazar,Zapata,67.13,204.12,115.67,247.21,566.99,Unlimited,SBD,M,
Boys,67.13,11,Tristen Moreno,Edinburg North,63.32,226.8,136.08,195.04,557.92,Unlimited,SBD,M,
Boys,67.13,12,Chris Veloz,Zapata,67.13,201.85,136.08,219.99,557.92,Unlimited,SBD,M,
Boys,67.13,13,Giovanni Pacheco,Edinburg Idea College Prep,66.04,222.26,142.88,188.24,553.38,Unlimited,SBD,M,
Boys,67.13,14,Gavin Perez,Rio Hondo,67.13,231.33,111.13,206.38,548.85,Unlimited,SBD,M,
Boys,67.13,15,Isaiah Casas,Mission Veterans Memorial,66.77,192.78,147.42,195.04,535.24,Unlimited,SBD,M,
Boys,67.13,16,Trystan Riojas,Edcouch-Elsa,67.13,208.65,136.08,188.24,532.97,Unlimited,SBD,M,
Boys,67.13,17,Eduardo Alvarado,La Feria,67.13,215.46,127.01,188.24,530.7,Unlimited,SBD,M,
Boys,67.13,18,Jorge Salinas,PSJA,67.13,197.31,124.74,197.31,519.36,Unlimited,SBD,M,
Boys,67.13,19,Eddie Gonzalez,Mercedes,65.77,201.85,106.59,208.65,517.1,Unlimited,SBD,M,
Boys,67.13,20,Kevin Lopez,Donna North,67.13,210.92,113.4,190.51,514.83,Unlimited,SBD,M,
Boys,67.13,21,Maddox Gonzalez,Edinburg Economedes,66.86,199.58,124.74,183.7,508.02,Unlimited,SBD,M,
Boys,67.13,22,Abraham Vega,Hidalgo Early College,67.13,190.51,122.47,190.51,503.49,Unlimited,SBD,M,
Boys,67.13,23,Daniel Marquez,Mission,67.13,204.12,108.86,190.51,503.49,Unlimited,SBD,M,
Boys,67.13,24,John Luna #3,La Villa,67.13,199.58,104.33,199.58,503.49,Unlimited,SBD,M,
Boys,67.13,25,Sebastian Islas,McAllen Rowe,63.5,185.97,115.67,199.58,501.22,Unlimited,SBD,M,
Boys,67.13,26,Matthew Sanchez,Mission Veterans Memorial,64.95,204.12,113.4,167.83,485.34,Unlimited,SBD,M,
Boys,67.13,27,Isaac Ortega,Rio Hondo,67.13,183.7,115.67,183.7,483.08,Unlimited,SBD,M,
Boys,67.13,28,Brandon Leal,Hidalgo Early College,63.59,185.97,102.06,185.97,474,Unlimited,SBD,M,
Boys,67.13,29,Anthony Azua,Mission Veterans Memorial,66.32,161.03,120.2,161.03,442.25,Unlimited,SBD,M,
Boys,67.13,30,Sebastian Garza,La Joya,67.13,165.56,95.25,172.37,433.18,Unlimited,SBD,M,
Boys,67.13,31,Austin Allison,Edinburg Vela,64.95,170.1,108.86,136.08,415.04,Unlimited,SBD,M,
Boys,67.13,32,Oziel Lopez,Santa Maria,67.13,142.88,104.33,167.83,415.04,Unlimited,SBD,M,
Boys,67.13,33,Nathan Osorio,Hidalgo Early College,67.13,158.76,95.25,156.49,410.5,Unlimited,SBD,M,
Boys,67.13,34,Chris Ovideo,Santa Maria,67.13,151.95,92.99,147.42,392.36,Unlimited,SBD,M,
Boys,67.13,35,Angel Tovar,La Joya,67.13,145.15,81.65,158.76,385.55,Unlimited,SBD,M,
Boys,67.13,36,Isaac Cardenas,Hidalgo Early College,67.13,149.69,83.91,145.15,378.75,Unlimited,SBD,M,
Boys,67.13,37,Miguel Hernandez,Hidalgo Early College,67.13,138.35,92.99,142.88,374.21,Unlimited,SBD,M,
Boys,67.13,DQ,Jose Williams,La Joya Juarez-Lincoln,65.41,195.04,131.54,,,Unlimited,SBD,M,
Boys,67.13,DQ,Esmael Rodriguez,Edcouch-Elsa,67.13,,,,,Unlimited,SBD,M,
Boys,67.13,DQ,Christopher Custodio,Pharr Valley View,67.13,163.29,,,,Unlimited,SBD,M,
Boys,67.13,DQ,Diego Mercado,McAllen Rowe,67.13,,,,,Unlimited,SBD,M,
Boys,67.13,DQ,Emilio Cantu,La Joya,67.13,210.92,97.52,206.38,,Unlimited,SBD,M,
Boys,67.13,DQ,Kalel De Leon,Mission Veterans Memorial,66.68,,,,,Unlimited,SBD,M,
Boys,74.84,1,Jesus Cantu,Edinburg Economedes,73.3,288.03,188.24,240.4,716.68,Unlimited,SBD,M,
Boys,74.84,2,Juan Sanchez,Edinburg North,74.3,288.03,138.35,242.67,669.05,Unlimited,SBD,M,
Boys,74.84,3,Eduardo Cervantes,McAllen,73.66,254.01,154.22,242.67,650.91,Unlimited,SBD,M,
Boys,74.84,4,Israel Magana,Mercedes,74.12,267.62,117.93,251.74,637.3,Unlimited,SBD,M,
Boys,74.84,5,Jacob Faz,Edinburg North,74.84,231.33,142.88,249.48,623.69,Unlimited,SBD,M,
Boys,74.84,6,Damian Villalpando,La Joya,74.84,249.48,147.42,219.99,616.89,Unlimited,SBD,M,
Boys,74.84,7,Izzik Alonzo,Donna,74.84,233.6,147.42,224.53,605.55,Unlimited,SBD,M,
Boys,74.84,8,Joseph Munoz,McAllen Rowe,74.21,208.65,156.49,233.6,598.74,Unlimited,SBD,M,
Boys,74.84,9,Adan Ramirez,McAllen Rowe,72.03,238.14,140.61,215.46,594.21,Unlimited,SBD,M,
Boys,74.84,9,Victor Hernandez,Rio Grande City Grulla,67.81,233.6,129.27,204.12,566.99,Unlimited,SBD,M,
Boys,74.84,10,John Torres,Edcouch-Elsa,74.84,235.87,138.35,217.72,591.94,Unlimited,SBD,M,
Boys,74.84,11,Eric Adrian,McAllen Memorial,74.12,244.94,129.27,215.46,589.67,Unlimited,SBD,M,
Boys,74.84,12,Ryan Guerra,Mission Veterans Memorial,74.84,231.33,147.42,208.65,587.4,Unlimited,SBD,M,
Boys,74.84,13,Cristoff Tollett,Pharr Valley View,73.75,219.99,136.08,208.65,564.72,Unlimited,SBD,M,
Boys,74.84,14,Esiah Gracia,Santa Maria,74.84,204.12,138.35,215.46,557.92,Unlimited,SBD,M,
Boys,74.84,15,Evander Guana,Edinburg Vela,72.67,185.97,151.95,217.72,555.65,Unlimited,SBD,M,
Boys,74.84,16,Eduardo Garza,Mission,74.84,219.99,129.27,192.78,542.04,Unlimited,SBD,M,
Boys,74.84,17,Alek Flores,PSJA,74.84,190.51,133.81,201.85,526.17,Unlimited,SBD,M,
Boys,74.84,18,Marcus Colunga,Donna North,74.84,192.78,104.33,217.72,514.83,Unlimited,SBD,M,
Boys,74.84,19,Danny Leyva,Weslaco East,74.84,195.04,106.59,206.38,508.02,Unlimited,SBD,M,
Boys,74.84,20,Raul Sedas,Hidalgo Early College,74.84,208.65,113.4,176.9,498.95,Unlimited,SBD,M,
Boys,74.84,21,Leo Mata,Santa Maria,74.84,183.7,108.86,204.12,496.68,Unlimited,SBD,M,
Boys,74.84,22,Diego Mendez,Roma,74.84,165.56,97.52,167.83,430.91,Unlimited,SBD,M,
Boys,74.84,23,Jose Morales,Rio Grande City,74.84,136.08,99.79,151.95,387.82,Unlimited,SBD,M,
Boys,74.84,24,Felipe Rincon,La Joya Juarez-Lincoln,72.94,147.42,90.72,147.42,385.55,Unlimited,SBD,M,
Boys,74.84,25,Osiel Rivas,PSJA Southwest,71.94,142.88,72.57,151.95,367.41,Unlimited,SBD,M,
Boys,74.84,DQ,Victor Hernandez,La Joya Juarez-Lincoln,69.04,219.99,,,,Unlimited,SBD,M,
Boys,74.84,DQ,Diego De Saaverda,McAllen,74.12,,,,,Unlimited,SBD,M,
Boys,74.84,DQ,Devin Aguilar,Edinburg North,74.66,297.1,188.24,,,Unlimited,SBD,M,
Boys,74.84,DQ,Fernando Morales,Edinburg Economedes,74.84,,,,,Unlimited,SBD,M,
Boys,74.84,DQ,Jacob Martinez,PSJA North,74.84,,,,,Unlimited,SBD,M,
Boys,74.84,DQ,Israel Fiscal,Pharr Valley View,74.84,,,,,Unlimited,SBD,M,
Boys,74.84,DQ,Joel Sanchez,PSJA Southwest,70.4,188.24,,,,Unlimited,SBD,M,
Boys,74.84,DQ,Alex Serna,Donna,70.03,142.88,,,,Unlimited,SBD,M,
Boys,74.84,DQ,Sebastian Flores,La Feria,74.84,,,,,Unlimited,SBD,M,
Boys,74.84,DQ,Moises Sanchez,Mission,74.84,229.06,120.2,,,Unlimited,SBD,M,
Boys,82.1,1,Lorenzo Rocha,Donna,81.1,258.55,154.22,222.26,635.03,Unlimited,SBD,M,
Boys,82.1,2,Kyle Garcia,Weslaco East,79.29,242.67,145.15,204.12,591.94,Unlimited,SBD,M,
Boys,82.1,3,Aaron Ochoa,Rio Hondo,82.1,224.53,149.69,199.58,573.79,Unlimited,SBD,M,
Boys,82.1,4,Marco Maynez,PSJA,82.1,204.12,170.1,195.04,569.26,Unlimited,SBD,M,
Boys,82.1,5,Nehemias Martinez,La Villa,82.1,197.31,149.69,206.38,553.38,Unlimited,SBD,M,
Boys,82.1,6,Rey Solis,Zapata,82.1,201.85,140.61,192.78,535.24,Unlimited,SBD,M,
Boys,82.1,7,Santiago Flores,Weslaco East,82.1,188.24,136.08,210.92,535.24,Unlimited,SBD,M,
Boys,82.1,8,Ismael Garza,La Joya,82.1,201.85,111.13,208.65,521.63,Unlimited,SBD,M,
Boys,82.1,9,Javier Garcia,Mercedes,81.01,188.24,138.35,190.51,517.1,Unlimited,SBD,M,
Boys,82.1,10,Julian Silva,Donna,81.47,197.31,122.47,197.31,517.1,Unlimited,SBD,M,
Boys,82.1,11,Jesus Aguilar,Zapata,82.1,204.12,111.13,199.58,514.83,Unlimited,SBD,M,
Boys,82.1,12,Justin Martinez,Santa Maria,82.1,199.58,113.4,195.04,508.02,Unlimited,SBD,M,
Boys,82.1,13,Mason Atkinson,La Feria,82.1,199.58,113.4,183.7,496.68,Unlimited,SBD,M,
Boys,82.1,14,Guillermo Garcia,Mission Veterans Memorial,75.39,183.7,117.93,192.78,494.42,Unlimited,SBD,M,
Boys,82.1,15,Kevin Casiano,Mission Veterans Memorial,80.01,188.24,115.67,183.7,487.61,Unlimited,SBD,M,
Boys,82.1,16,Emiliano Romero,PSJA Southwest,77.56,188.24,106.59,185.97,480.81,Unlimited,SBD,M,
Boys,82.1,17,Adrian Mercado,La Joya,81.19,197.31,106.59,167.83,471.74,Unlimited,SBD,M,
Boys,82.1,18,Julian Ayala,Pharr Valley View,80.29,183.7,90.72,163.29,437.72,Unlimited,SBD,M,
Boys,82.1,DQ,Edgardo Duran,PSJA North,80.01,,,,,Unlimited,SBD,M,
Boys,82.1,DQ,Andrew Alvarado,PSJA North,80.29,,,,,Unlimited,SBD,M,
Boys,82.1,DQ,Jorge Aradillas,PSJA Southwest,80.47,,,,,Unlimited,SBD,M,
Boys,82.1,DQ,Lupe Garcia,PSJA Southwest,81.47,,,,,Unlimited,SBD,M,
Boys,82.1,DQ,Eusebio Garcia,Rio Grande City,82.1,226.8,165.56,,,Unlimited,SBD,M,
Boys,82.1,DQ,Mikey Gonzalez,Harlingen South,82.1,256.28,147.42,,,Unlimited,SBD,M,
Boys,82.1,DQ,Orvelin Nunez,Edinburg Economedes,82.1,,,,,Unlimited,SBD,M,
Boys,82.1,DQ,Rafael Aguirre,Edinburg North,81.1,,,,,Unlimited,SBD,M,
Boys,82.1,DQ,Marcelo Cantu,Mission Veterans Memorial,80.38,,,,,Unlimited,SBD,M,
Boys,82.1,DQ,Nestor Gonzalez,Mission Veterans Memorial,77.47,,,,,Unlimited,SBD,M,
Boys,82.1,DQ,Christopher Torres,Edinburg Vela,82.1,163.29,108.86,,,Unlimited,SBD,M,
Boys,82.1,DQ,Humberto Alvarez,La Joya Juarez-Lincoln,80.83,199.58,106.59,174.63,,Unlimited,SBD,M,
Boys,89.81,1,Jose Gallegos,PSJA Southwest,88.99,278.96,163.29,247.21,689.46,Unlimited,SBD,M,
Boys,89.81,2,Aiden Trevino,Edinburg North,89.63,299.37,183.7,197.31,680.39,Unlimited,SBD,M,
Boys,89.81,3,Daniel De La Cruz,McAllen Memorial,89.09,281.23,156.49,240.4,678.12,Unlimited,SBD,M,
Boys,89.81,4,Joel Villafuerte,Edinburg Idea College Prep,88.45,274.42,149.69,242.67,666.78,Unlimited,SBD,M,
Boys,89.81,5,Samuel Mata,Sharyland Pioneer,89.18,258.55,174.63,233.6,666.78,Unlimited,SBD,M,
Boys,89.81,6,Jesse Martinez,La Villa,89.81,263.08,154.22,247.21,664.51,Unlimited,SBD,M,
Boys,89.81,7,Juan Rodriguez,Edinburg Vela,88.36,274.42,172.37,215.46,662.24,Unlimited,SBD,M,
Boys,89.81,8,John Trevino,PSJA North,87.72,274.42,131.54,233.6,639.57,Unlimited,SBD,M,
Boys,89.81,9,Patricio Garcia-Quiroz,McAllen Rowe,89.81,238.14,188.24,213.19,639.57,Unlimited,SBD,M,
Boys,89.81,10,Armando Garcia,McAllen,89.36,238.14,167.83,226.8,632.76,Unlimited,SBD,M,
Boys,89.81,11,Gabriel Bruno,La Feria,89.81,260.82,145.15,217.72,623.69,Unlimited,SBD,M,
Boys,89.81,12,Jay-D Sanchez,Weslaco East,89.81,249.48,142.88,226.8,619.15,Unlimited,SBD,M,
Boys,89.81,13,Ruben Alvarez,PSJA Southwest,89.36,222.26,142.88,215.46,580.6,Unlimited,SBD,M,
Boys,89.81,14,Damian Avila,Edinburg Quest College Prep,88.99,226.8,142.88,192.78,562.45,Unlimited,SBD,M,
Boys,89.81,15,Ediel Garcia,Roma,89.81,229.06,129.27,204.12,562.45,Unlimited,SBD,M,
Boys,89.81,16,Jesus Garza,PSJA,89.81,226.8,131.54,192.78,551.11,Unlimited,SBD,M,
Boys,89.81,17,Jonathan Salinas,Rio Grande City,89.81,190.51,131.54,206.38,528.44,Unlimited,SBD,M,
Boys,89.81,18,Rolando Garcia,Donna,88.99,208.65,133.81,181.44,523.9,Unlimited,SBD,M,
Boys,89.81,19,Juan Lopez,Santa Maria,89.81,215.46,113.4,195.04,523.9,Unlimited,SBD,M,
Boys,89.81,20,Emmanuel Aldana,La Joya Juarez-Lincoln,87.54,179.17,108.86,204.12,492.15,Unlimited,SBD,M,
Boys,89.81,21,Elian Cruz,Roma,89.81,185.97,104.33,199.58,489.88,Unlimited,SBD,M,
Boys,89.81,22,Noah Lopez,Edinburg Vela,85.18,183.7,124.74,172.37,480.81,Unlimited,SBD,M,
Boys,89.81,23,Danny Martinez,Santa Maria,89.81,183.7,102.06,183.7,469.47,Unlimited,SBD,M,
Boys,89.81,24,Devin Lerma,Mission Veterans Memorial,85.82,165.56,124.74,170.1,460.4,Unlimited,SBD,M,
Boys,89.81,25,Adrian Ramirez,La Joya,89.81,172.37,92.99,165.56,430.91,Unlimited,SBD,M,
Boys,89.81,26,Marcus Desiga,Mission Veterans Memorial,88.27,149.69,104.33,156.49,410.5,Unlimited,SBD,M,
Boys,89.81,27,Luis Cruz,La Joya Juarez-Lincoln,89.63,142.88,86.18,158.76,387.82,Unlimited,SBD,M,
Boys,89.81,DQ,Austin Yanez,McAllen,89.72,,,,,Unlimited,SBD,M,
Boys,89.81,DQ,Noah Lugo,Santa Maria,89.81,,,,,Unlimited,SBD,M,
Boys,89.81,DQ,Max Barrera,Rio Grande City Grulla,89.81,188.24,90.72,,,Unlimited,SBD,M,
Boys,89.81,DQ,Deven Becerra,Rio Grande City Grulla,89.81,,,,,Unlimited,SBD,M,
Boys,89.81,DQ,Pedro De La Garza,Rio Grande City,89.81,,,,,Unlimited,SBD,M,
Boys,89.81,DQ,Andres Garza,PSJA North,89.81,,,,,Unlimited,SBD,M,
Boys,89.81,DQ,Kevin Llanes,PSJA North,89.81,,,,,Unlimited,SBD,M,
Boys,89.81,DQ,Ricardo Fuentes,Pharr Valley View,89.81,,,,,Unlimited,SBD,M,
Boys,89.81,DQ,Michael Martinez #22,Edcouch-Elsa,89.81,,,,,Unlimited,SBD,M,
Boys,89.81,DQ,Christian Trevino,Edinburg Quest College Prep,88.99,,,,,Unlimited,SBD,M,
Boys,89.81,DQ,Tomás Muñoz,Edcouch-Elsa,89.81,,,,,Unlimited,SBD,M,
Boys,89.81,DQ,Nickalus Moss,McAllen,85.73,226.8,,,,Unlimited,SBD,M,
Boys,89.81,DQ,Dylan Tijerina,Sharyland Pioneer,89.81,,,,,Unlimited,SBD,M,
Boys,89.81,DQ,Alexis Blanco,Santa Maria,89.81,,,,,Unlimited,SBD,M,
Boys,89.81,DQ,Devin Torres,Mission,89.81,210.92,113.4,,,Unlimited,SBD,M,
Boys,99.79,1,Josue Aguilera,La Villa,99.79,317.51,195.04,303.91,816.47,Unlimited,SBD,M,
Boys,99.79,2,Tomas Mendez,PSJA North,95.07,317.51,188.24,233.6,739.36,Unlimited,SBD,M,
Boys,99.79,3,Tomas Longoria,Harlingen South,93.17,274.42,192.78,244.94,712.14,Unlimited,SBD,M,
Boys,99.79,4,Pablo Solis,Rio Grande City,99.79,267.62,142.88,288.03,698.53,Unlimited,SBD,M,
Boys,99.79,5,Ethan Anciso,Mercedes,99.79,265.35,179.17,249.48,694,Unlimited,SBD,M,
Boys,99.79,6,Reylie Cuellar,Pharr Valley View,99.79,288.03,183.7,192.78,664.51,Unlimited,SBD,M,
Boys,99.79,7,Artemio Belmontes,Roma,99.79,281.23,147.42,235.87,664.51,Unlimited,SBD,M,
Boys,99.79,8,Del Lozano,Zapata,99.79,272.16,167.83,217.72,657.71,Unlimited,SBD,M,
Boys,99.79,9,Nick Garza,PSJA Memorial,96.16,258.55,161.03,231.33,650.91,Unlimited,SBD,M,
Boys,99.79,10,Alejandro Rodriguez,McAllen Rowe,99.61,278.96,167.83,204.12,650.91,Unlimited,SBD,M,
Boys,99.79,11,Angel Vega,McAllen,96.8,249.48,161.03,215.46,625.96,Unlimited,SBD,M,
Boys,99.79,12,Miguel Maynez,PSJA,99.79,226.8,165.56,226.8,619.15,Unlimited,SBD,M,
Boys,99.79,13,Lubin Garcia,Weslaco East,99.79,258.55,145.15,210.92,614.62,Unlimited,SBD,M,
Boys,99.79,14,Carlos Rivera,Pharr Valley View,94.26,226.8,158.76,195.04,580.6,Unlimited,SBD,M,
Boys,99.79,15,Jesus Escojido,PSJA Southwest,99.06,215.46,156.49,192.78,564.72,Unlimited,SBD,M,
Boys,99.79,16,Giovanni Garcia,La Joya Juarez-Lincoln,91.81,215.46,131.54,210.92,557.92,Unlimited,SBD,M,
Boys,99.79,17,Noe Leos,Rio Hondo,99.79,233.6,136.08,183.7,553.38,Unlimited,SBD,M,
Boys,99.79,18,Dominic Rincon,Weslaco East,99.79,199.58,138.35,195.04,532.97,Unlimited,SBD,M,
Boys,99.79,19,Justin Cruz,Edinburg Vela,90.45,192.78,145.15,192.78,530.7,Unlimited,SBD,M,
Boys,99.79,20,Raul Guerra,Zapata,99.79,192.78,115.67,185.97,494.42,Unlimited,SBD,M,
Boys,99.79,21,Alessandro Garfaiz,Mission,99.06,188.24,124.74,176.9,489.88,Unlimited,SBD,M,
Boys,99.79,22,Jae P Rivera,La Villa,99.79,206.38,106.59,174.63,487.61,Unlimited,SBD,M,
Boys,99.79,23,Eduardo Martinez,Mission,99.79,172.37,122.47,188.24,483.08,Unlimited,SBD,M,
Boys,99.79,24,Andrew Suarez,La Villa,99.79,183.7,102.06,167.83,453.59,Unlimited,SBD,M,
Boys,99.79,DQ,Angel Gonzalez,Mission,99.79,,,,,Unlimited,SBD,M,
Boys,99.79,DQ,Ismael Garcia,Edinburg Economedes,99.79,256.28,,,,Unlimited,SBD,M,
Boys,99.79,DQ,Rene Aguirre,Roma,99.79,213.19,,,,Unlimited,SBD,M,
Boys,99.79,DQ,Chris Deleon,Sharyland Pioneer,99.79,,,,,Unlimited,SBD,M,
Boys,99.79,DQ,Aaron Benavidez,Rio Grande City,99.79,,,,,Unlimited,SBD,M,
Boys,99.79,DQ,Darrin Molina,Rio Grande City,99.79,,,,,Unlimited,SBD,M,
Boys,99.79,DQ,Rolando De La Rosa,Pharr Valley View,99.79,,,,,Unlimited,SBD,M,
Boys,109.77,1,Julian Lopez,PSJA Memorial,105.6,281.23,190.51,272.16,743.89,Unlimited,SBD,M,
Boys,109.77,2,Nathaniel Navarro,Edinburg North,105.05,299.37,183.7,249.48,732.55,Unlimited,SBD,M,
Boys,109.77,3,Reno Villanueva,Harlingen South,109.77,303.91,172.37,231.33,707.6,Unlimited,SBD,M,
Boys,109.77,4,Jacob Cuevas,PSJA,109.77,265.35,170.1,238.14,673.58,Unlimited,SBD,M,
Boys,109.77,5,Kris Perez,Edinburg Vela,107.59,238.14,197.31,226.8,662.24,Unlimited,SBD,M,
Boys,109.77,6,Yoan Perez,La Joya Juarez-Lincoln,109.77,263.08,142.88,254.01,659.98,Unlimited,SBD,M,
Boys,109.77,7,Alex Tovar,La Joya Juarez-Lincoln,108.5,272.16,154.22,231.33,657.71,Unlimited,SBD,M,
Boys,109.77,8,Alexis Salinas #1,Edinburg Idea College Prep,104.33,265.35,117.93,226.8,610.08,Unlimited,SBD,M,
Boys,109.77,9,Timothy Cantu,PSJA North,105.87,249.48,151.95,206.38,607.81,Unlimited,SBD,M,
Boys,109.77,10,Salomon Romero,PSJA Southwest,106.05,235.87,138.35,204.12,578.33,Unlimited,SBD,M,
Boys,109.77,11,Ivan Barajas,Pharr Valley View,106.59,229.06,138.35,195.04,562.45,Unlimited,SBD,M,
Boys,109.77,12,Jesus Ponce,PSJA Southwest,109.77,226.8,124.74,206.38,557.92,Unlimited,SBD,M,
Boys,109.77,13,Mario Calderas,PSJA Southwest,107.59,197.31,131.54,192.78,521.63,Unlimited,SBD,M,
Boys,109.77,14,Alexis Rodriguez,Mission,109.77,179.17,142.88,165.56,487.61,Unlimited,SBD,M,
Boys,109.77,15,Pedro Vicencio,Pharr Valley View,100.7,179.17,111.13,163.29,453.59,Unlimited,SBD,M,
Boys,109.77,16,Emmanuel Lopez,Rio Grande City,109.77,165.56,108.86,174.63,449.06,Unlimited,SBD,M,
Boys,109.77,17,Jose Garza,La Villa,109.77,142.88,81.65,147.42,371.95,Unlimited,SBD,M,
Boys,109.77,DQ,Domingo Villarreal,Mission,109.77,247.21,156.49,,,Unlimited,SBD,M,
Boys,109.77,DQ,Brandon Lopez,Rio Grande City Grulla,109.77,249.48,190.51,,,Unlimited,SBD,M,
Boys,109.77,DQ,Jesus Ortiz,Rio Grande City,109.77,,,,,Unlimited,SBD,M,
Boys,109.77,DQ,Alexis Alaniz #1,Roma,109.77,,,,,Unlimited,SBD,M,
Boys,124.74,1,Isaac Garza,La Villa,124.74,303.91,183.7,249.48,737.09,Unlimited,SBD,M,
Boys,124.74,2,Ezra Echavarria,Harlingen South,124.74,294.84,190.51,235.87,721.21,Unlimited,SBD,M,
Boys,124.74,3,Arturo Gonzalez #5,Edcouch-Elsa,124.74,299.37,163.29,249.48,712.14,Unlimited,SBD,M,
Boys,124.74,4,Juan Meza,Donna,124.74,283.5,181.44,240.4,705.34,Unlimited,SBD,M,
Boys,124.74,5,Jose Escojido,PSJA Southwest,124.19,265.35,192.78,238.14,696.26,Unlimited,SBD,M,
Boys,124.74,6,Ryan Luna,Harlingen South,124.74,276.69,156.49,238.14,671.32,Unlimited,SBD,M,
Boys,124.74,7,Isaiah Hinojosa,Harlingen South,124.74,269.89,174.63,215.46,659.98,Unlimited,SBD,M,
Boys,124.74,8,Ramiro Cardoza,Edcouch-Elsa,124.74,254.01,149.69,244.94,648.64,Unlimited,SBD,M,
Boys,124.74,9,Matthew Perez,Mercedes,116.75,249.48,183.7,204.12,637.3,Unlimited,SBD,M,
Boys,124.74,10,Alex Ortiz,Edcouch-Elsa,124.74,260.82,156.49,219.99,637.3,Unlimited,SBD,M,
Boys,124.74,12,Alfredo Garza,Rio Hondo,110.5,272.16,127.01,195.04,594.21,Unlimited,SBD,M,
Boys,124.74,13,Demetrio Talamantes,McAllen Rowe,112.58,238.14,154.22,188.24,580.6,Unlimited,SBD,M,
Boys,124.74,14,Nick Paez,Roma,124.74,249.48,108.86,219.99,578.33,Unlimited,SBD,M,
Boys,124.74,15,Julio Garcia,La Joya Juarez-Lincoln,121.47,233.6,147.42,190.51,571.53,Unlimited,SBD,M,
Boys,124.74,16,Julian Esqueda,Pharr Valley View,123.47,219.99,147.42,201.85,569.26,Unlimited,SBD,M,
Boys,124.74,17,Gabriel Anzaldua,Hidalgo Early College,124.74,233.6,136.08,174.63,544.31,Unlimited,SBD,M,
Boys,124.74,18,Jacob Zuniga,Weslaco East,124.74,199.58,138.35,183.7,521.63,Unlimited,SBD,M,
Boys,124.74,19,Rey Ortega,Donna North,124.74,226.8,113.4,176.9,517.1,Unlimited,SBD,M,
Boys,124.74,20,Jose Barrera,Weslaco East,124.74,208.65,142.88,158.76,510.29,Unlimited,SBD,M,
Boys,124.74,21,Luis Mendiola,Edinburg Vela,115.21,142.88,147.42,183.7,474,Unlimited,SBD,M,
Boys,124.74,22,Angel Perez,Donna,119.39,183.7,106.59,170.1,460.4,Unlimited,SBD,M,
Boys,124.74,DQ,Adan Espino,Donna,118.57,276.69,140.61,,,Unlimited,SBD,M,
Boys,124.74,DQ,Sergio Avuita,PSJA,124.74,263.08,181.44,,,Unlimited,SBD,M,
Boys,124.74,DQ,Nick Thomas,PSJA Memorial,119.66,258.55,183.7,,,Unlimited,SBD,M,
Boys,124.74,DQ,Christian Enriquez,Rio Grande City Grulla,124.74,,,,,Unlimited,SBD,M,
Boys,124.74,DQ,David Vera,Zapata,124.74,,,,,Unlimited,SBD,M,
Boys,124.74,DQ,Angel Trujillo,Mercedes,113.22,265.35,,,,Unlimited,SBD,M,
Boys,139.71,1,Eleazar Reyes,Edinburg Idea College Prep,139.71,335.66,208.65,226.8,771.11,Unlimited,SBD,M,
Boys,139.71,2,Cristobal Ortega,La Feria,139.71,322.05,183.7,258.55,764.3,Unlimited,SBD,M,
Boys,139.71,3,Christopher Morales,Rio Grande City,139.71,340.19,170.1,231.33,741.62,Unlimited,SBD,M,
Boys,139.71,4,Fernando Arce,Rio Hondo,132.81,285.76,161.03,210.92,657.71,Unlimited,SBD,M,
Boys,139.71,5,Justin Saldana,PSJA,139.71,269.89,163.29,188.24,621.42,Unlimited,SBD,M,
Boys,139.71,6,David Castaneda,Rio Hondo,131.54,249.48,156.49,199.58,605.55,Unlimited,SBD,M,
Boys,139.71,7,Daimien Bramlett,Edinburg Vela,133.72,192.78,147.42,226.8,566.99,Unlimited,SBD,M,
Boys,139.71,8,Dwayne Rivera,La Feria,139.71,254.01,108.86,188.24,551.11,Unlimited,SBD,M,
Boys,139.71,9,Joey Garza,La Villa,139.71,226.8,129.27,192.78,548.85,Unlimited,SBD,M,
Boys,139.71,10,Edwin Aguillon,McAllen Rowe,139.71,188.24,158.76,199.58,546.58,Unlimited,SBD,M,
Boys,139.71,11,Joseph Figueroa,La Feria,129.73,260.82,151.95,217.72,630.49,Unlimited,SBD,M,
Boys,139.71,11,Yahir Garcia,Donna,125.83,206.38,117.93,204.12,528.44,Unlimited,SBD,M,
Boys,139.71,12,Diego Diaz,Roma,139.71,190.51,122.47,167.83,480.81,Unlimited,SBD,M,
Boys,139.71,13,Sean Frausto,La Feria,131.9,199.58,95.25,151.95,446.79,Unlimited,SBD,M,
Boys,139.71+,1,Nelson Quintero,Edinburg Idea College Prep,154.13,333.39,213.19,274.42,821,Unlimited,SBD,M,
Boys,139.71+,2,Pedro Martinez,PSJA,140.61,362.87,174.63,272.16,809.66,Unlimited,SBD,M,
Boys,139.71+,3,Ivan Cantu,PSJA Memorial,148.87,290.3,179.17,224.53,694,Unlimited,SBD,M,
Boys,139.71+,4,Juan Villegas,Rio Hondo,158.3,276.69,172.37,240.4,689.46,Unlimited,SBD,M,
Boys,139.71+,5,Miguel Chavarria,Rio Hondo,146.78,247.21,158.76,258.55,664.51,Unlimited,SBD,M,
Boys,139.71+,6,Adrian Betancourt,Rio Hondo,143.06,254.01,156.49,208.65,619.15,Unlimited,SBD,M,
Boys,139.71+,7,Rene Hernandez,Roma,152.32,254.01,172.37,188.24,614.62,Unlimited,SBD,M,
Boys,139.71+,8,Alexander Sosa,La Joya,140.61,197.31,151.95,204.12,553.38,Unlimited,SBD,M,
Boys,139.71+,9,Jovanny Lopez,Donna North,140.61,229.06,131.54,181.44,542.04,Unlimited,SBD,M,
Boys,139.71+,10,Kaiden Davila,La Feria,180.71,204.12,111.13,158.76,474,Unlimited,SBD,M,
Boys,139.71+,DQ,Ricardo Barba,La Feria,143.34,312.98,,,,Unlimited,SBD,M,
Boys,139.71+,DQ,Marco Diaz,Edinburg Vela,204.12,,,,,Unlimited,SBD,M,
Boys,139.71+,DQ,Jordan Brewster,PSJA North,141.61,,,,,Unlimited,SBD,M,
Boys,139.71+,DQ,Lizandro Garcia,Rio Grande City Grulla,140.61,,,,,Unlimited,SBD,M,
Boys,139.71+,DQ,Caleb Trevino,Harlingen South,140.61,206.38,,,,Unlimited,SBD,M,
