Division,WeightClassKg,Place,Name,Team,BodyweightKg,Best3SquatKg,Best3BenchKg,Best3DeadliftKg,TotalKg,Equipment,Event,Sex,BirthDate
Girls,44.23,1,Lilly Patterson,Brock,44.18,117.93,68.04,111.13,297.1,Unlimited,SBD,F,
Girls,44.23,2,Deysi Villegas,Granbury,43.09,97.52,40.82,106.59,244.94,Unlimited,SBD,F,
Girls,44.23,3,Sydney Wikane,Fort Worth Chisholm Trail,44.18,77.11,38.56,99.79,215.46,Unlimited,SBD,F,
Girls,44.23,4,Lilly Carruthers,Aledo,43.82,65.77,45.36,72.57,183.7,Unlimited,SBD,F,
Girls,44.23,5,Jessica Aguado,Granbury,41.69,65.77,40.82,56.7,163.29,Unlimited,SBD,F,
Girls,47.85,1,Jordan Harsany,Brock,47.58,99.79,49.9,99.79,249.48,Unlimited,SBD,F,
Girls,47.85,2,Jazmynn Torres,Granbury,47.08,86.18,36.29,81.65,204.12,Unlimited,SBD,F,
Girls,47.85,3,Kimber Gray,Azle,47.4,68.04,36.29,81.65,185.97,Unlimited,SBD,F,
Girls,47.85,4,Michelle Lechuga,Azle,45.77,58.97,38.56,77.11,174.63,Unlimited,SBD,F,
Girls,47.85,5,Kylie Dernovich,Aledo,46.86,58.97,31.75,56.7,147.42,Unlimited,SBD,F,
Girls,51.94,1,Mila Luangraj,Saginaw,51.3,108.86,47.63,127.01,283.5,Unlimited,SBD,F,
Girls,51.94,2,Savannah Garcia,Fort Worth Boswell,50.35,111.13,49.9,102.06,263.08,Unlimited,SBD,F,
Girls,51.94,3,Morgan Sehnem,Aledo,50.17,108.86,52.16,97.52,258.55,Unlimited,SBD,F,
Girls,51.94,4,Addi Dickerson,Fort Worth Boswell,49.08,97.52,58.97,81.65,238.14,Unlimited,SBD,F,
Girls,51.94,5,Zoe LaPraim,Aledo,51.85,77.11,47.63,102.06,226.8,Unlimited,SBD,F,
Girls,51.94,6,Jayli Pope,Brock,49.99,77.11,38.56,90.72,206.38,Unlimited,SBD,F,
Girls,51.94,7,Jaylynn Torres,Granbury,49.9,88.45,36.29,79.38,204.12,Unlimited,SBD,F,
Girls,51.94,8,Cooper King #2,Azle,50.53,83.91,40.82,79.38,204.12,Unlimited,SBD,F,
Girls,51.94,9,Aidan Smith,Azle,49.94,77.11,45.36,74.84,197.31,Unlimited,SBD,F,
Girls,51.94,10,Gabby O'Leary,Brock,50.98,79.38,38.56,79.38,197.31,Unlimited,SBD,F,
Girls,51.94,11,Liadhan Guffey,Aledo,51.89,77.11,47.63,72.57,197.31,Unlimited,SBD,F,
Girls,51.94,12,Carissa Ramirez,Glen Rose,48.94,70.31,40.82,77.11,188.24,Unlimited,SBD,F,
Girls,56.02,1,Raegan Williams,Azle,54.75,142.88,77.11,154.22,374.21,Unlimited,SBD,F,
Girls,56.02,2,Avery Trujillo,Fort Worth Boswell,55.38,124.74,56.7,133.81,315.25,Unlimited,SBD,F,
Girls,56.02,3,Ashlee DeHoyos,Fort Worth Boswell,52.34,108.86,74.84,129.27,312.98,Unlimited,SBD,F,
Girls,56.02,4,Bryanna Orr,Aledo,55.29,117.93,70.31,115.67,303.91,Unlimited,SBD,F,
Girls,56.02,5,Lexi Douglas,Glen Rose,52.57,113.4,52.16,102.06,267.62,Unlimited,SBD,F,
Girls,56.02,6,Aliana Cintron,Saginaw,52.48,97.52,54.43,113.4,265.35,Unlimited,SBD,F,
Girls,56.02,7,Alexia Reyna,Fort Worth Chisholm Trail,54.34,95.25,63.5,104.33,263.08,Unlimited,SBD,F,
Girls,56.02,8,Macie Baker,Azle,54.93,102.06,49.9,106.59,258.55,Unlimited,SBD,F,
Girls,56.02,9,Preslee Carnes,Granbury,55.2,97.52,52.16,90.72,240.4,Unlimited,SBD,F,
Girls,56.02,10,Natalie Swift,Saginaw,55.84,102.06,47.63,88.45,238.14,Unlimited,SBD,F,
Girls,56.02,11,Jaidyn Hildebrand,Saginaw,54.3,79.38,52.16,99.79,231.33,Unlimited,SBD,F,
Girls,56.02,12,Addison Van Hooser,Azle,52.66,81.65,45.36,92.99,219.99,Unlimited,SBD,F,
Girls,56.02,13,Emery Ford,Azle,53.93,81.65,43.09,88.45,213.19,Unlimited,SBD,F,
Girls,56.02,14,Temperance Comer,Glen Rose,52.21,79.38,45.36,81.65,206.38,Unlimited,SBD,F,
Girls,56.02,15,Scout Hendrickson,Brock,53.43,72.57,34.02,90.72,197.31,Unlimited,SBD,F,
Girls,56.02,16,Lanie Walker,Brock,53.34,79.38,38.56,77.11,195.04,Unlimited,SBD,F,
Girls,56.02,17,Celeste Ramirez,Glen Rose,52.71,58.97,40.82,54.43,154.22,Unlimited,SBD,F,
Girls,56.02,18,Elisa Vargas,Saginaw,55.7,106.59,,,106.59,Unlimited,S,F,
Girls,56.02,DQ,Charlee Soward,Aledo,55.66,,,,,Unlimited,SBD,F,
Girls,56.02,DQ,Coco Blackwell,Oakridge School,55.79,74.84,45.36,86.18,,Unlimited,SBD,F,
Girls,60.1,1,Hannah Clark,Aledo,58.88,127.01,79.38,147.42,353.8,Unlimited,SBD,F,
Girls,60.1,2,Emma Lavett,Glen Rose,58.88,113.4,61.23,133.81,308.44,Unlimited,SBD,F,
Girls,60.1,3,Dakota Donaldson,Azle,59.56,108.86,74.84,111.13,294.84,Unlimited,SBD,F,
Girls,60.1,4,Shelby Roy,Brock,59.06,102.06,49.9,120.2,272.16,Unlimited,SBD,F,
Girls,60.1,5,Stella Kendall,Aledo,58.69,102.06,61.23,102.06,265.35,Unlimited,SBD,F,
Girls,60.1,6,Kellar Gunter,Azle,56.47,99.79,49.9,113.4,263.08,Unlimited,SBD,F,
Girls,60.1,7,Hannah Johns,Azle,59.38,92.99,61.23,99.79,254.01,Unlimited,SBD,F,
Girls,60.1,8,Emma Venecia,Fort Worth Boswell,60.01,95.25,49.9,108.86,254.01,Unlimited,SBD,F,
Girls,60.1,9,Rylie Auvenshine,Azle,59.28,88.45,54.43,106.59,249.48,Unlimited,SBD,F,
Girls,60.1,10,Amely Gomez,Saginaw,59.47,90.72,43.09,108.86,242.67,Unlimited,SBD,F,
Girls,60.1,11,Tina Lapraim,Aledo,59.56,92.99,49.9,95.25,238.14,Unlimited,SBD,F,
Girls,60.1,12,Bella Ibarra,Glen Rose,56.25,79.38,47.63,102.06,229.06,Unlimited,SBD,F,
Girls,60.1,13,Sarah Mengue,Fort Worth Chisholm Trail,56.06,79.38,38.56,83.91,201.85,Unlimited,SBD,F,
Girls,67.36,1,Emily Parker #2,Glen Rose,65.18,163.29,77.11,147.42,387.82,Unlimited,SBD,F,
Girls,67.36,2,Ari Mathias,Aledo,67.04,140.61,83.91,115.67,340.19,Unlimited,SBD,F,
Girls,67.36,3,Kairi Rupp,Fort Worth Boswell,65.09,136.08,58.97,127.01,322.05,Unlimited,SBD,F,
Girls,67.36,4,Kenzie Arellano,Azle,65.32,97.52,70.31,106.59,274.42,Unlimited,SBD,F,
Girls,67.36,5,Breleigh Mayer,Aledo,66.32,102.06,54.43,113.4,269.89,Unlimited,SBD,F,
Girls,67.36,6,Ella Childress,Aledo,66.27,99.79,58.97,102.06,260.82,Unlimited,SBD,F,
Girls,67.36,7,Yancy Ross,Glen Rose,60.28,90.72,47.63,95.25,233.6,Unlimited,SBD,F,
Girls,67.36,8,Savanah Chavez,Fort Worth Chisholm Trail,64.68,77.11,40.82,83.91,201.85,Unlimited,SBD,F,
Girls,67.36,9,Dayla McKnight,Fort Worth Chisholm Trail,65.5,52.16,38.56,74.84,165.56,Unlimited,SBD,F,
Girls,67.36,10,Haley Carlson,Azle,67.22,122.47,,,122.47,Unlimited,S,F,
Girls,67.36,DQ,Kalilah Goynes,Oakridge School,62.87,70.31,36.29,79.38,,Unlimited,SBD,F,
Girls,67.36,DQ,Sophia Frank,Aledo,61.82,79.38,54.43,95.25,,Unlimited,SBD,F,
Girls,75.07,1,Luci Lambert,Fort Worth Boswell,71.12,181.44,97.52,170.1,449.06,Unlimited,SBD,F,
Girls,75.07,2,Francis Arroyo,Saginaw,73.26,195.04,102.06,151.95,449.06,Unlimited,SBD,F,
Girls,75.07,3,Sharai Rosas,Granbury,70.85,142.88,68.04,142.88,353.8,Unlimited,SBD,F,
Girls,75.07,4,Taylor Dawley,Granbury,71.8,129.27,61.23,136.08,326.59,Unlimited,SBD,F,
Girls,75.07,5,Ali Abendschan,Fort Worth Boswell,72.44,124.74,70.31,115.67,310.71,Unlimited,SBD,F,
Girls,75.07,6,Kayla Harris,Fort Worth Chisholm Trail,74.34,104.33,54.43,124.74,283.5,Unlimited,SBD,F,
Girls,75.07,7,Caycee Smith,Fort Worth Chisholm Trail,69.54,104.33,54.43,120.2,278.96,Unlimited,SBD,F,
Girls,75.07,8,Taylor Harlin,Glen Rose,75.02,102.06,65.77,108.86,276.69,Unlimited,SBD,F,
Girls,75.07,9,Ashton Teague,Aledo,72.26,97.52,61.23,99.79,258.55,Unlimited,SBD,F,
Girls,75.07,10,Lyla Irish,Brock,69.4,92.99,52.16,102.06,247.21,Unlimited,SBD,F,
Girls,75.07,11,Nghi Tran,Saginaw,74.71,170.1,72.57,,242.67,Unlimited,SB,F,
Girls,75.07,12,Leilani Robert,Aledo,69.81,90.72,43.09,102.06,235.87,Unlimited,SBD,F,
Girls,75.07,13,Claire Mosley,Aledo,72.03,81.65,38.56,106.59,226.8,Unlimited,SBD,F,
Girls,75.07,14,Kenya Mendoza,Brock,68.49,72.57,43.09,97.52,213.19,Unlimited,SBD,F,
Girls,75.07,15,Dashuna McKnight,Fort Worth Chisholm Trail,74.57,68.04,36.29,90.72,195.04,Unlimited,SBD,F,
Girls,75.07,DQ,Payton Patrick,Aledo,69.94,63.5,43.09,90.72,,Unlimited,SBD,F,
Girls,82.33,1,Estrella Diaz,Granbury,79.56,172.37,90.72,156.49,419.57,Unlimited,SBD,F,
Girls,82.33,2,Anna Kelly,Fort Worth Boswell,82.1,136.08,65.77,129.27,331.12,Unlimited,SBD,F,
Girls,82.33,3,Preslee Spangler,Brock,75.84,129.27,72.57,117.93,319.78,Unlimited,SBD,F,
Girls,82.33,4,Destiny Kessler,Fort Worth Boswell,76.38,117.93,61.23,136.08,315.25,Unlimited,SBD,F,
Girls,82.33,5,Emmy Mey,Brock,77.93,102.06,83.91,129.27,315.25,Unlimited,SBD,F,
Girls,82.33,6,Karmyn Williams,Granbury,79.61,129.27,54.43,115.67,299.37,Unlimited,SBD,F,
Girls,82.33,7,Jayden Staggs,Aledo,80.83,117.93,65.77,115.67,299.37,Unlimited,SBD,F,
Girls,82.33,8,Brooklynn Norman,Glen Rose,79.06,115.67,52.16,124.74,292.57,Unlimited,SBD,F,
Girls,82.33,9,Abby Gilbert,Aledo,78.83,113.4,56.7,111.13,281.23,Unlimited,SBD,F,
Girls,90.04,1,Carli Rosson,Glen Rose,88.81,154.22,81.65,145.15,381.02,Unlimited,SBD,F,
Girls,90.04,2,Ashley Bailey,Saginaw,86.27,140.61,81.65,140.61,362.87,Unlimited,SBD,F,
Girls,90.04,3,Prunelle Ngilo,Fort Worth Chisholm Trail,83.01,145.15,63.5,136.08,344.73,Unlimited,SBD,F,
Girls,90.04,4,Jordan Johnson,Saginaw,89.63,117.93,74.84,129.27,322.05,Unlimited,SBD,F,
Girls,90.04,5,Harmony Burns,Granbury,88.68,127.01,70.31,120.2,317.51,Unlimited,SBD,F,
Girls,90.04,6,Miley Drikas,Brock,88.59,127.01,58.97,117.93,303.91,Unlimited,SBD,F,
Girls,90.04,7,Madilyn Burgess,Azle,87.32,113.4,61.23,108.86,283.5,Unlimited,SBD,F,
Girls,90.04,8,Ally Gilbert,Aledo,89.22,99.79,63.5,108.86,272.16,Unlimited,SBD,F,
Girls,90.04,9,Leya Applewhite,Saginaw,88.95,127.01,,136.08,263.08,Unlimited,SD,F,
Girls,100.02,1,Addie Ranabargar,Fort Worth Boswell,91.49,170.1,77.11,149.69,396.89,Unlimited,SBD,F,
Girls,100.02,2,Daniella Inana,Saginaw,97.52,142.88,68.04,122.47,333.39,Unlimited,SBD,F,
Girls,100.02,2,Adrianna Lambert,Aledo,90.36,149.69,72.57,142.88,365.14,Unlimited,SBD,F,
Girls,100.02,3,Hannah Brown,Saginaw,93.3,161.03,72.57,127.01,360.61,Unlimited,SBD,F,
Girls,100.02,4,Bella Garcia,Granbury,95.21,156.49,77.11,127.01,360.61,Unlimited,SBD,F,
Girls,100.02,5,Allison Ortiz,Saginaw,90.99,142.88,61.23,129.27,333.39,Unlimited,SBD,F,
Girls,100.02,6,Lilly Crisp,Glen Rose,98.2,133.81,79.38,113.4,326.59,Unlimited,SBD,F,
Girls,100.02,7,Lauren StPeters,Aledo,90.54,117.93,68.04,133.81,319.78,Unlimited,SBD,F,
Girls,100.02,8,Natalie Vasquez,Azle,97.02,115.67,79.38,97.52,292.57,Unlimited,SBD,F,
Girls,100.02,9,Lilly Stover,Glen Rose,94.21,102.06,56.7,108.86,267.62,Unlimited,SBD,F,
Girls,110,1,Kathryn Goodner,Granbury,100.24,138.35,86.18,142.88,367.41,Unlimited,SBD,F,
Girls,110,3,Haley Rountree,Fort Worth Boswell,104.24,145.15,72.57,113.4,331.12,Unlimited,SBD,F,
Girls,110+,1,Lauren Pepper,Fort Worth Boswell,112.08,163.29,90.72,142.88,396.89,Unlimited,SBD,F,
Girls,110+,2,Giselle Redding,Azle,148.46,140.61,88.45,124.74,353.8,Unlimited,SBD,F,
Girls,110+,3,Tatiana Flores,Fort Worth Chisholm Trail,121.38,102.06,58.97,117.93,278.96,Unlimited,SBD,F,
Girls,110+,DQ,Bisola Olusomiro,Saginaw,124.78,,,,,Unlimited,SBD,F,
Girls,,NS,Allie Faulkner,Aledo,,,,,,Unlimited,SBD,F,
