Name,BirthDate,Division,Equipment,WeightClassLbs,BodyweightLbs,Event,Bench1Lbs,Bench2Lbs,Bench3Lbs,Best3BenchLbs,Deadlift1Lbs,Deadlift2Lbs,Deadlift3Lbs,Deadlift4Lbs,Best3DeadliftLbs,TotalLbs,Sex,Place
David Horsley,,Open,Multi-ply,308,283,BD,155,-175,175,175,250,295,315,,315,490,M,1
Kelton Downs,,Teenage 16-17,Multi-ply,242,242,BD,175,205,-215,205,250,295,315,,315,520,M,1
Kevin Dearth,,Masters 40+,Multi-ply,308,283,BD,385,405,425,425,535,-555,575,,575,1000,M,1
Brandon Phelix,,Open,Multi-ply,308+,335,D,,,,,610,680,705,,705,705,M,1
Kurt Bardos,,Masters 40+,Multi-ply,220,220,D,,,,,405,430,450,460,450,450,M,1
Rick Hampshire,,Masters 40+,Raw,181,178,D,,,,,405,430,-445,,430,430,M,1
Brandon Phelix,,Open,Raw,308+,335,B,390,435,470,470,,,,,,470,M,1
Daniel Curtis,,Open,Multi-ply,308+,380,B,-965,-965,-1015,,,,,,,,M,DQ
